(80, 77, 74, 56, 18, 55, 68, 14, 54,  8, 53, 32, 81, 39, 20, 23, 19, 60, 67, 42, 15, 25, 34, 64, 46, 76, 82, 12, 10, 33, 62,  6,  0, 83, 61,  5, 22, 73,  2, 84, 71,  3, 31, 44, 21, 49, 75, 65, 85, 78, 27, 36,  1, 26, 30, 52, 86,  9, 70, 13, 51, 47, 17,  7, 29, 16, 87, 35, 66, 69, 37, 57, 63, 45, 40, 24, 50, 88, 38, 59, 28, 58,  4, 43, 11, 89, 48, 72, 41)
2086.945640
257759 ms
