(60, 44, 41, 21, 53, 45, 61, 40, 32, 51, 58, 37, 28, 19, 62, 55, 42, 11, 50,  8, 31, 49, 18, 63, 13, 46, 23,  9,  4, 35, 43, 48,  1, 64,  6, 12,  7, 16, 26, 36, 14, 17, 65, 39, 10,  3, 20, 30, 27,  5, 33, 66, 52, 29,  0, 47, 57, 67, 22, 38, 34, 54, 25, 56, 68,  2, 24, 15)
1557.756609
77593 ms
