(60, 15, 19, 39,  5,  3, 20, 10,  2, 24, 61, 40, 17, 32, 51, 34, 54, 14, 38, 49, 57, 45, 62, 13, 46, 22, 33, 27, 43, 48, 63, 44,  4, 47, 64, 23,  0, 35, 56, 16, 36, 26, 65,  1, 41, 53,  9, 21, 29, 52, 30, 66, 18, 42, 55, 11, 50,  8, 31, 67, 12, 28,  6,  7, 25, 68, 58, 37)
1589.562663
56916 ms
