(80, 32, 14, 54, 56, 19, 18, 24, 45, 46, 25, 34, 64, 53, 81, 48, 72, 66, 78, 22, 73, 28, 82,  0,  5, 27, 13, 62,  9, 83,  2,  8, 40, 68, 55, 74, 67, 26, 51, 84, 50, 76, 30, 43, 29, 23, 17, 47, 70, 20, 39, 85, 35, 65, 38, 58, 15, 42, 60, 33, 86, 61, 11, 59, 63, 16, 49, 75, 71, 87,  6, 10, 36,  1,  7, 77,  4, 88, 37, 57, 31, 44, 21,  3, 69, 89, 12, 41, 52)
2406.723055
148936 ms
