(60, 31,  8, 50, 11, 42, 55, 34, 17, 61, 24, 48, 21, 35,  0, 43,  5, 62, 40, 51, 18, 58, 37, 54, 33, 45, 19, 63, 32,  9, 53,  4, 44, 41, 64, 15, 10, 39, 20,  3, 29, 52, 30,  1, 65,  2, 27, 47, 57, 23, 66, 36, 56, 16, 26, 14, 49, 38, 46, 67, 25,  7, 12, 28,  6, 68, 13, 22)
1614.613267
122639 ms
