(80, 76,  2, 73, 28, 16, 58, 26, 81, 48,  8, 54, 55, 68, 46, 25, 18, 19, 32, 82, 12, 38, 59, 22, 10, 62, 83, 57, 31,  3, 21, 44, 49, 75, 66, 84, 72, 35, 37, 69, 65, 52, 41, 85, 71, 53, 14, 64, 34, 42, 15,  7,  1, 36, 17, 47, 33, 86, 63, 40, 45, 24, 74, 60, 67, 56, 87, 39, 20,  9, 70, 13, 51, 27, 78, 88, 50,  5, 23, 29,  4, 11, 43, 77, 30, 61, 89,  0,  6)
2067.091330
163213 ms
