(80, 62, 10, 33, 51, 27, 78, 70, 81, 48, 72, 66, 77, 67, 42, 15, 60, 56, 74, 32, 82, 39, 20,  6,  0, 61, 43, 83, 12, 41, 35, 52, 76, 50,  2, 28, 30, 84, 65, 69, 44, 21,  3, 37, 57, 85, 11,  4, 19, 46, 18, 25, 34, 64, 68, 55, 14, 53, 71, 75, 86,  9, 13, 47, 17,  1, 36,  7, 29, 87, 63, 45, 24, 40, 54,  8, 49, 31, 88, 22, 23,  5, 26, 58, 16, 89, 38, 59, 73)
2038.326463
247879 ms
