(80, 29, 77, 67, 60, 42, 15, 56, 19, 74, 34, 64, 46, 32, 81,  9, 70, 17, 47, 78, 27, 13, 82, 31, 37, 57, 49, 75, 71, 53,  8, 68, 83, 54, 14, 25, 18, 55, 40, 45, 24, 63, 59, 76, 50, 84, 61, 62, 10,  7,  1, 36, 85, 73, 28,  4, 43, 11, 22, 38, 86,  5, 23, 33, 51, 26, 58, 16, 30, 69, 66, 87,  0,  6, 20, 39, 12, 35, 88,  3, 21, 44, 65, 52, 72, 89, 41,  2, 48)
2160.576660
151767 ms
