(80, 63, 40, 32, 53, 54, 55, 68, 46, 18, 25, 34, 64, 60, 26, 81, 69, 57, 75,  3, 44, 21, 49, 31, 82, 12, 76, 16, 11, 22,  4,  9, 20, 83,  0,  6, 27, 47, 51, 10, 50, 84, 48, 41, 38, 59, 28, 73, 85, 71, 14, 24,  7,  1, 36, 17, 39, 86, 72, 35, 66, 78, 62, 23, 61, 87, 30, 15, 42, 74, 19, 56, 67, 29,  5, 43, 88, 70, 13, 33, 77, 58, 45,  8, 37, 89,  2, 52, 65)
2313.123786
237298 ms
