(60,  1, 48, 53,  9, 21, 31,  8, 50, 38, 49, 61, 45, 47, 11, 55, 42, 62, 24, 39,  5, 10, 20,  3,  2, 19, 15, 63, 35, 41,  4, 44, 54, 34, 64, 17, 32, 37,  6, 28, 51, 40, 65, 18,  7, 26, 36, 56, 16, 25, 14, 66, 27, 30, 43,  0, 29, 52, 67, 13, 46, 22, 23, 57, 33, 68, 58, 12)
1572.976383
180182 ms
