(80, 15, 42, 67, 60, 56, 18, 46, 25, 34, 64, 55, 68, 32, 81, 63, 14, 40, 24, 45, 19, 74, 77,  5, 23, 30, 82, 78, 47, 17, 27, 51, 33, 13,  9, 50, 83, 48, 37, 57, 75, 49, 31, 44, 84, 72, 73, 59, 38, 16, 26, 28, 85, 71,  3, 21,  8, 53, 54, 58, 43, 86, 76,  2, 36,  1, 70, 62, 69, 87, 11, 22, 61, 10,  7, 29,  4, 66, 88, 52, 35, 65, 41, 12,  0, 89,  6, 20, 39)
2198.910556
139428 ms
