(80, 38, 59, 73,  4, 43, 11, 10, 81, 32, 56, 19, 74, 60, 67, 20, 39, 82, 41,  2, 28, 58, 16, 30, 83,  9, 62, 61,  0,  6, 84, 50, 76, 63, 29, 23,  1, 36,  7, 15, 42, 77, 22, 85, 48, 37, 57,  3, 44, 31, 75, 69, 86, 53,  8, 54, 68, 55, 46, 64, 34, 25, 18, 24, 45, 87, 47, 17, 33, 78, 27, 51, 70, 13, 88, 72, 66, 71, 21, 49, 40, 14, 26,  5, 89, 12, 35, 65, 52)
2123.993043
402161 ms
