(60,  4, 53,  9, 47, 21, 35, 48, 45, 61, 40, 51, 58, 37, 28, 26, 36, 18, 62, 23,  0, 43, 29, 52, 30, 19, 63, 15,  2, 39, 10,  3, 20,  5, 27,  1, 64, 17, 32,  6, 12,  7, 56, 14, 65, 22, 57, 44, 41, 66, 55, 42, 11, 50,  8, 31, 49, 67, 34, 54, 25, 16, 38, 46, 68, 24, 33, 13)
1523.978354
118848 ms
