(80, 16, 30, 26, 58, 29, 77, 67, 42, 15, 60, 32, 81, 48, 37, 57, 31, 44, 49, 75, 82, 39, 20, 62, 10, 70,  6, 83, 72, 41,  2, 63, 40, 24, 45, 84, 71, 53, 14, 54, 68, 55, 64, 34, 25, 46, 18, 56, 19, 74, 85, 76, 33, 78, 47, 17, 51, 27, 13,  9, 86, 43, 11,  4, 28, 38, 59, 73, 50, 87, 35, 52, 65, 69, 21,  3,  8, 66, 88, 22,  5, 23,  1, 36,  7, 89,  0, 61, 12)
2021.529945
404767 ms
