(80, 77, 67, 42, 15, 60, 56, 74, 19, 40, 14, 32, 81, 39, 20,  0,  6, 62, 13, 82, 48, 72, 35, 66, 78, 51, 27, 33, 43, 83, 12, 41, 50, 76,  2, 59, 38, 30, 84, 52, 65, 69, 75, 49, 21, 31,  3, 57, 85, 73, 28, 63, 71, 53, 54,  8, 44, 86, 37, 45, 24, 46, 18, 25, 34, 64, 55, 68, 11, 87, 10, 23,  5, 29, 26, 58, 16, 88,  9, 70, 47, 17,  1, 36,  7, 89, 61, 22,  4)
2129.024792
130302 ms
