(80, 32,  8, 54, 46, 55, 68, 64, 34, 25, 18, 60, 77, 81, 48, 72, 12, 41, 35, 52, 76, 50, 66, 69, 82, 39, 20,  6,  0, 61, 43, 83, 65, 57, 37, 75, 71, 53, 14, 40, 24, 45, 30, 84, 59, 19, 56, 74, 29,  5, 23, 33, 13, 85,  2, 73, 28, 16, 58, 26, 86, 38, 63,  3, 31, 44, 21, 49, 87,  9, 70,  1, 36,  7, 42, 15, 67,  4, 88, 10, 51, 27, 78, 47, 17, 89, 62, 22, 11)
2050.583388
165522 ms
