(80, 67, 42, 15, 60, 56, 18, 25, 34, 64, 68, 55, 46, 32, 81, 48, 72, 35, 66, 78, 27, 51, 33, 77, 26, 82, 50, 76, 52, 65, 69, 71, 75, 49, 44, 31, 57, 83, 12, 41,  2, 73, 59, 28, 84, 39, 20,  0,  6, 62, 13, 85, 37, 21,  3, 53,  8, 54, 14, 30, 86, 16, 58, 29,  5, 23, 10, 87,  9, 70, 47, 17,  1, 36,  7, 88, 38, 63, 45, 40, 24, 74, 19,  4, 89, 61, 22, 11, 43)
2061.343902
159132 ms
