(60, 25, 16, 56, 28, 51, 61, 40, 17, 32, 37, 58,  6, 26, 36, 54, 62,  5, 52, 29, 48, 35, 47, 63, 24, 45, 39, 10,  3, 20, 43, 27, 64, 19, 15,  2, 50,  8, 31, 11, 55, 49, 14, 65, 18, 34, 38, 42, 44,  1, 66, 13, 46, 22, 33, 23, 57, 67, 41,  4, 53,  9, 21,  0, 30, 68, 12,  7)
1615.603920
84028 ms
