(60, 14, 25, 11, 55, 42, 38, 61, 17, 28, 12,  7, 26, 36, 56, 54, 18, 62, 15, 19,  2, 35, 53,  9, 47, 29, 48,  1, 63, 45,  3, 20, 43, 21, 50,  8, 31, 49, 34, 64, 46, 22, 57, 41,  4, 52, 65, 40, 32, 37, 51, 58, 13, 66, 24, 10, 39,  5, 27, 30, 67, 33, 23,  0, 44, 68,  6, 16)
1668.644389
155452 ms
