(80, 32, 14, 74, 42,  7, 56, 19, 24, 40, 45, 26, 30, 81, 23, 36, 67, 15, 60, 25, 18, 34, 64, 46, 68, 55, 53, 71, 82,  9, 58, 11, 33, 51, 27, 78, 83, 37, 21, 44, 49, 57, 69, 66, 84, 43,  4, 29,  5,  6,  0, 85, 70, 13, 77, 54, 75, 31,  3,  8, 63, 12, 86, 39, 62, 22, 28, 16, 52, 76, 50, 87, 41,  2, 38, 73, 20, 88, 59,  1, 17, 47, 10, 61, 89, 48, 72, 35, 65)
2292.836004
138903 ms
