(60, 44, 41, 21,  9,  1, 48, 45, 19, 61, 40, 17, 32, 51, 18, 58, 37, 13, 62, 24, 33, 23, 57, 22, 46, 63, 15, 36, 26, 11, 50,  8, 31, 49, 38, 14, 64, 25,  7, 12, 28,  6, 65, 34, 54, 42, 55, 16, 56, 66,  0, 47, 53,  4, 35, 29, 67,  5, 43, 52, 30, 27, 20,  3, 68,  2, 39, 10)
1579.210748
90134 ms
