(80, 27, 78, 47, 17, 13, 70,  9, 81, 12, 41, 50, 76, 30, 16, 28, 73, 29, 82, 48, 72, 35, 52,  2, 38, 63, 83, 66, 77, 42, 15, 60, 67,  7,  1, 36, 33, 51, 84, 19, 74, 18, 46, 55, 68, 64, 34, 25, 56, 40, 14, 32, 53, 71, 85, 75, 31, 44, 49, 21,  3, 57, 69, 86, 59, 26, 58,  4, 43, 11, 22, 23, 87, 39, 20,  6,  0, 61, 88, 37, 65, 54,  8, 45, 24, 89,  5, 10, 62)
2097.047786
192221 ms
