(60, 28,  7, 36, 56, 26, 16, 14, 34, 61, 40, 32, 17, 13, 46, 22,  0,  1, 62, 45, 48, 35,  4, 53, 21,  9, 47, 63, 15, 19, 24,  2, 20,  3, 10, 39,  5, 64, 18, 12,  6, 58, 37, 51, 65, 27, 30, 52, 29, 43, 23, 66, 25, 55, 42, 11, 50, 67, 33, 44, 41,  8, 31, 57, 68, 54, 38, 49)
1550.136630
153503 ms
