(80, 19, 74, 56, 60, 15, 42, 67, 77, 29, 23, 81, 48, 72, 35, 65, 78, 27, 51, 33, 82, 12, 41, 50, 76,  2, 73, 28, 30, 43, 83, 39, 20,  6,  0, 62, 13, 84, 57, 37, 44, 21, 31, 49, 71, 85, 75,  3,  8, 54, 55, 68, 64, 34, 25, 18, 46, 14, 32, 53, 86, 66, 69, 52, 59, 38, 45, 24, 40, 63, 87, 16, 26, 58,  5, 10, 22, 88,  9, 70, 47, 17,  1, 36,  7, 89, 11,  4, 61)
2062.800838
102153 ms
