(80, 29, 60, 40, 14, 55,  8, 54, 53, 66, 50, 81, 12, 41, 35, 38, 73, 39, 82, 30, 32, 68, 64, 34, 46, 74, 15, 42, 67,  7, 77, 33, 62, 10,  9, 83, 26, 18, 25, 19, 24, 63, 49, 21, 65, 84, 72, 37, 57,  3, 44, 31, 75, 71, 69, 85, 48, 52, 16, 59,  2, 61, 86, 22,  4, 43, 28, 58, 56, 45, 76, 87, 47, 78, 17, 27, 51, 70, 13, 88, 11,  1, 36, 23,  5, 20, 89,  6,  0)
2258.781165
254210 ms
