(80, 32, 53, 71,  3,  8, 54, 55, 68, 42, 67,  7, 36, 77, 81,  9, 70, 10,  1,  5, 29, 23, 33, 13, 82, 72, 48, 49, 44, 21, 31, 57, 83, 50, 76, 19, 60, 15, 34, 64, 25, 46, 14, 40, 45, 24, 26, 84, 39,  4,  2, 73, 38, 59, 85, 30, 58, 56, 18, 74, 75, 65, 69, 66, 86, 12, 62, 61, 22, 63, 16, 87, 20, 17, 47, 51, 27, 78, 88,  6,  0, 43, 11, 28, 52, 89, 41, 37, 35)
2267.562415
231493 ms
