(80, 49, 44, 21, 31, 71, 75, 69, 65, 81, 48, 72, 35, 52, 66, 63, 32, 14, 40, 24, 45, 82, 39, 20,  6,  0, 61, 43, 83, 12, 41, 50, 76,  2, 73, 28, 30, 26, 77, 84,  9, 70, 13, 47, 17, 78, 27, 85, 58, 29,  5, 23, 33, 10, 62, 86, 37, 57,  3, 53,  8, 54, 55, 68, 64, 34, 25, 46, 87, 11, 22,  4, 16, 38, 59, 88, 19, 74, 18, 56, 60, 15, 42, 67, 51, 89, 36,  1,  7)
2039.782918
117024 ms
