(80, 32, 63, 25, 46, 68, 55, 64, 34, 18, 24, 40, 14, 53, 71, 49, 75, 81, 50, 59, 30, 58, 23, 29, 77, 60, 15, 42, 33, 51, 13, 82, 48, 72,  2,  8, 54, 45, 26, 83, 35, 52, 38,  4, 16, 73, 76, 84, 39,  6, 56, 74, 19, 67,  7, 85, 28, 22,  5, 36,  1, 10, 86, 62, 61, 11, 43,  0, 20, 87,  9, 70, 47, 17, 78, 27, 88, 37, 57,  3, 31, 44, 21, 69, 89, 66, 65, 41, 12)
2141.034190
102121 ms
