(80, 59, 38, 63, 24, 40, 45, 32, 41, 81, 61, 22, 62, 27, 10,  9, 82, 48,  2, 52, 73, 11, 28, 43, 83, 39, 70, 13, 17, 47, 78,  4, 66, 84, 33, 51, 23, 36,  1,  5, 16, 30, 26, 85, 72, 44, 21,  8, 54, 53, 86, 12, 76, 58, 18, 15, 42, 56,  7, 20, 87, 69, 71, 14, 46, 68, 55, 64, 34, 25, 74, 19, 60, 67, 77, 29, 88, 35, 65, 57, 37,  3, 31, 49, 75, 50, 89,  0,  6)
2180.272559
236012 ms
