(60, 15, 19,  2,  3, 20, 10,  5, 39, 24, 61, 37,  6, 28, 16, 25, 14, 62, 45,  1, 35, 21,  4, 53,  9, 47, 63, 17, 51,  7, 12, 36, 56, 54, 18, 64, 32,  0, 43, 29, 48, 52, 30, 27, 65, 34, 31,  8, 50, 42, 11, 55, 26, 66, 49, 38, 41, 44, 57, 67, 13, 46, 22, 23, 33, 68, 40, 58)
1498.301286
169949 ms
