(60, 22, 23,  0,  5, 10, 45, 61, 26, 42, 55,  8, 50, 31, 11, 14, 62,  2, 20, 48, 35, 21,  9, 47, 33, 63, 19,  3, 27, 30, 29, 52, 43, 15, 64, 32, 51, 37, 25, 16, 38, 65, 17, 36, 56, 12,  6, 49, 39, 24, 66, 57, 41, 44,  4, 53,  1, 67, 46, 54, 34,  7, 28, 58, 18, 68, 40, 13)
1591.074405
61991 ms
