(80, 71, 32, 53, 68, 34, 64, 55, 46, 25, 15,  1, 27,  9, 70, 81, 61, 22, 60, 11,  4, 43, 28, 82, 52, 38,  2, 73, 41, 83, 13, 51, 33, 23, 36, 17, 47, 10, 62, 84, 69, 44,  3, 21, 31, 49, 75, 57, 85, 78,  5, 74, 56, 67,  7, 42, 77, 50, 86, 72, 12,  0,  6, 20, 39, 87, 29, 58, 16, 30, 26,  8, 54, 14, 76, 88, 65, 66, 63, 40, 45, 24, 18, 19, 59, 89, 48, 37, 35)
2226.182593
206566 ms
