(80, 63, 32, 53, 46, 55, 68, 64, 34, 25, 18, 19, 74, 56, 67, 77, 81, 12, 41, 35, 52, 38, 59, 76, 50, 82,  1, 36,  7, 42, 15, 60,  5, 83, 72, 37, 57, 49, 44,  3, 31, 66, 69, 84,  9, 62, 10, 47, 17, 27, 13, 85, 70, 51, 78, 33, 23, 29, 28, 16, 26, 43, 86, 54,  8, 40, 45, 24, 14, 30, 58, 87, 48, 21, 71, 75,  4, 11, 22, 88, 61,  6,  0, 20, 39, 89, 73,  2, 65)
2102.834624
294228 ms
