(60,  0, 35, 21,  4, 53,  9, 41, 57, 61, 24, 39, 10,  3, 20, 52, 29, 48,  1, 45, 19, 62, 15,  2,  5, 27, 30, 43, 13, 32, 63, 33, 44, 47, 64, 18, 14, 25, 16,  7, 56, 36, 26, 65, 17, 54, 34, 46, 22, 23, 38, 66, 49, 31,  8, 50, 11, 55, 42, 67, 12, 28,  6, 58, 37, 68, 40, 51)
1511.328077
89907 ms
