(60, 34, 38, 25, 16, 56, 36, 26, 14, 17, 61, 32, 37, 58, 54, 46, 13, 24, 62, 22, 23,  1, 43, 48, 29, 52, 45, 63, 19,  2, 10,  3, 20, 30, 27,  5, 39, 64,  0, 35, 21,  9, 53,  4, 41, 57, 65, 12,  7, 28,  6, 51, 66, 33, 47, 44, 67, 49, 31,  8, 50, 11, 55, 42, 18, 68, 40, 15)
1391.141500
117460 ms
