(60, 47,  9, 21,  0, 35,  2, 61, 15, 19, 45, 10, 20,  3, 52, 29, 43, 48,  1, 62, 40, 32, 17, 13, 46, 22, 57, 33, 63, 34, 49, 38, 25, 16, 56, 36, 26, 18, 64, 14, 55, 42, 11, 50,  8, 31, 65, 24, 39,  5, 23, 27, 30, 66, 51,  7, 28, 12,  6, 67, 54, 41, 44,  4, 53, 68, 58, 37)
1493.978561
243430 ms
