(80, 45, 24, 40, 34, 64, 68, 55,  8, 54, 14, 32, 53, 71, 81, 48, 72, 35, 41, 50, 76, 38, 59, 82, 61, 23, 33, 78, 51, 27, 13, 70,  9, 83, 12, 62, 73,  2, 52, 65, 84, 39, 20,  6,  0,  5, 85, 63, 74, 19, 56, 67, 15, 42,  7, 60, 77, 86, 57, 49, 21, 31,  3, 44, 18, 25, 46, 30, 87, 11, 43,  4, 29, 58, 26, 16, 28, 88,  1, 36, 47, 17, 10, 22, 89, 69, 66, 75, 37)
2125.932257
211079 ms
