(80, 78, 17, 47, 51, 50, 38, 76, 65, 81, 71,  3, 53, 32, 14, 34, 64, 74, 19, 60, 56, 42, 15, 67, 77, 82, 28, 73, 16,  4, 10,  6, 83, 12, 11, 43, 26, 58, 29, 23,  5, 84, 61, 62,  9,  0, 20, 39, 85, 30, 45, 24, 40, 46, 18, 25, 68, 55, 54, 59, 86, 35, 31, 21, 44, 57, 37, 87, 52, 66, 69, 49, 75,  8, 63,  2, 88, 70, 27, 13, 33,  7, 36,  1, 22, 89, 48, 72, 41)
2127.093918
236288 ms
