(60, 45, 20, 35, 41,  4,  9, 44,  1, 61, 46, 22, 23, 30,  5,  2, 19, 62, 18, 34, 14, 28, 26, 36, 12,  7,  6, 17, 63, 48, 29, 47, 21, 53,  0, 64, 40, 37, 58, 49, 50,  8, 31, 65, 13, 57, 42, 55, 11, 38, 66, 54, 25, 56, 16, 51, 32, 67, 33, 27, 43, 52,  3, 39, 15, 68, 24, 10)
1630.328737
104425 ms
