(80, 63, 32, 40, 24, 45, 59, 38,  2, 81, 48, 72, 75, 49, 44, 21, 71, 82, 39, 20,  6,  0, 41, 83, 12, 61, 10, 62, 22, 43,  4, 84, 50, 76, 14, 54, 55, 68, 64, 34, 25, 18, 46, 74, 19, 16, 85, 35, 66, 78, 27, 51, 47, 17, 86, 33, 23,  5,  7, 36,  1, 13, 70,  9, 87, 30, 26, 58, 56, 60, 42, 15, 67, 77, 29, 88, 52, 69, 65, 37, 57, 31,  3,  8, 53, 89, 73, 28, 11)
2002.141458
190589 ms
